…
``` r
as_tibble(example_Cluster_parm)
```

    ## # A tibble: 81 × 6
    ##        a       b cluster_var position ItemID AssertionID
    ##    <dbl>   <dbl>       <dbl>    <dbl> <chr>  <chr>      
    ##  1     1 -1.21         0.371        1 CL_i1  CL_i1_AS1  
    ##  2     1 -0.0959       0.371        1 CL_i1  CL_i1_AS2  
    ##  3     1  0.0881       0.371        1 CL_i1  CL_i1_AS3  
    ##  4     1  0.0188       0.371        1 CL_i1  CL_i1_AS4  
    ##  5     1  0.248        0.371        1 CL_i1  CL_i1_AS5  
    ##  6     1 -0.0965       0.371        1 CL_i1  CL_i1_AS6  
    ##  7     1 -0.546        0.371        1 CL_i1  CL_i1_AS7  
    ##  8     1 -0.727        0.371        1 CL_i1  CL_i1_AS8  
    ##  9     1  0.787        0.371        1 CL_i1  CL_i1_AS9  
    ## 10     1 -0.210        0.371        1 CL_i1  CL_i1_AS10 
    ## # ℹ 71 more rows
…
